{
  "results": [
    {
      "popularity": 162.83,
      "vote_count": 301,
      "video": false,
      "poster_path": "/yJdeWaVXa2se9agI6B4mQunVYkB.jpg",
      "id": 449924,
      "adult": false,
      "backdrop_path": "/ekP6EVxL81lZ4ivcqPsoZ72rY0h.jpg",
      "original_language": "cn",
      "original_title": "葉問4",
      "genre_ids": [
        28,
        18,
        36
      ],
      "title": "Ip Man 4: The Finale",
      "vote_average": 6,
      "overview": "Following the death of his wife, Ip Man travels to San Francisco to ease tensions between the local kung fu masters and his star student, Bruce Lee, while searching for a better future for his son.",
      "release_date": "2019-12-20"
    },
    {
      "popularity": 121.492,
      "vote_count": 432,
      "video": false,
      "poster_path": "/5eNiYMu2GXCtNlDwMcJqKGVwyoX.jpg",
      "id": 448119,
      "adult": false,
      "backdrop_path": "/lG802rseTZcN9mtLsQPVfApEVzM.jpg",
      "original_language": "en",
      "original_title": "Dolittle",
      "genre_ids": [
        12,
        35,
        14,
        10751
      ],
      "title": "Dolittle",
      "vote_average": 6.4,
      "overview": "After losing his wife seven years earlier, the eccentric Dr. John Dolittle, famed doctor and veterinarian of Queen Victoria’s England, hermits himself away behind the high walls of Dolittle Manor with only his menagerie of exotic animals for company. But when the young queen falls gravely ill, a reluctant Dolittle is forced to set sail on an epic adventure to a mythical island in search of a cure, regaining his wit and courage as he crosses old adversaries and discovers wondrous creatures.",
      "release_date": "2020-01-01"
    },
    {
      "popularity": 101.204,
      "vote_count": 94,
      "video": false,
      "poster_path": "/hJ6YEbrjFvToa5c7IiUqILoB6Je.jpg",
      "id": 552178,
      "adult": false,
      "backdrop_path": "/4ZSlTfkHtgTTupCaLbseXQQzZha.jpg",
      "original_language": "en",
      "original_title": "Dark Waters",
      "genre_ids": [
        18
      ],
      "title": "Dark Waters",
      "vote_average": 7.5,
      "overview": "A tenacious attorney uncovers a dark secret that connects a growing number of unexplained deaths due to one of the world's largest corporations. In the process, he risks everything — his future, his family, and his own life — to expose the truth.",
      "release_date": "2019-11-22"
    },
    {
      "popularity": 75.539,
      "vote_count": 440,
      "video": false,
      "poster_path": "/1DPUFG6QnGqzpvEaDEv7TaepycM.jpg",
      "id": 458897,
      "adult": false,
      "backdrop_path": "/a0xTB1vBxMGt6LGG4N7k1wO9lfL.jpg",
      "original_language": "en",
      "original_title": "Charlie's Angels",
      "genre_ids": [
        28,
        12,
        35
      ],
      "title": "Charlie's Angels",
      "vote_average": 6.4,
      "overview": "When a systems engineer blows the whistle on a dangerous technology, Charlie's Angels from across the globe are called into action, putting their lives on the line to protect society.",
      "release_date": "2019-11-14"
    },
    {
      "popularity": 52.885,
      "vote_count": 6,
      "video": false,
      "poster_path": "/8WUVHemHFH2ZIP6NWkwlHWsyrEL.jpg",
      "id": 338762,
      "adult": false,
      "backdrop_path": "/ocUrMYbdjknu2TwzMHKT9PBBQRw.jpg",
      "original_language": "en",
      "original_title": "Bloodshot",
      "genre_ids": [
        28,
        18,
        14,
        878
      ],
      "title": "Bloodshot",
      "vote_average": 5.8,
      "overview": "After he and his wife are murdered, marine Ray Garrison is resurrected by a team of scientists. Enhanced with nanotechnology, he becomes a superhuman, biotech killing machine - Bloodshot. As Ray first trains with fellow super-soldiers, he cannot recall anything from his former life. But when his memories flood back and he remembers the man that killed both him and his wife, he breaks out of the facility to get revenge, only to discover that there's more to the conspiracy than he thought.",
      "release_date": "2020-02-20"
    },
    {
      "popularity": 48.7,
      "vote_count": 90,
      "video": false,
      "poster_path": "/yqZdRSC6wfX6AGtBPfGbpvmNKag.jpg",
      "id": 539537,
      "adult": false,
      "backdrop_path": "/dzfiE2VHY362dGI62XfZ2iI87CT.jpg",
      "original_language": "en",
      "original_title": "Fantasy Island",
      "genre_ids": [
        14,
        27,
        878
      ],
      "title": "Fantasy Island",
      "vote_average": 4.7,
      "overview": "A group of contest winners arrive at an island hotel to live out their dreams, only to find themselves trapped in nightmare scenarios.",
      "release_date": "2020-02-12"
    },
    {
      "popularity": 40.757,
      "vote_count": 97,
      "video": false,
      "poster_path": "/coANk5hxXAAAygxIj69YRoyWMvz.jpg",
      "id": 536743,
      "adult": false,
      "backdrop_path": "/MmDgXMjZhD7rSH74mPrQj3uZaI.jpg",
      "original_language": "en",
      "original_title": "Queen & Slim",
      "genre_ids": [
        80,
        18,
        10749
      ],
      "title": "Queen & Slim",
      "vote_average": 7.5,
      "overview": "While on a forgettable first date together in Ohio, a black man and a black woman are pulled over for a minor traffic infraction. The situation escalates, with sudden and tragic results, when the man kills the police officer in self-defense. Terrified and in fear for their lives, the man, a retail employee, and the woman, a criminal defense lawyer, are forced to go on the run. But the incident is captured on video and goes viral, and the couple unwittingly become a symbol of trauma, terror, grief and pain for people across the country.",
      "release_date": "2019-11-27"
    },
    {
      "popularity": 46.307,
      "vote_count": 6,
      "video": false,
      "poster_path": "/tIpGQ9uuII7QVFF0GHCFTJFfXve.jpg",
      "id": 555974,
      "adult": false,
      "backdrop_path": "/tE7SjDwITs333u4fBICqEmCRfgk.jpg",
      "original_language": "en",
      "original_title": "Brahms: The Boy II",
      "genre_ids": [
        27,
        9648,
        53
      ],
      "title": "Brahms: The Boy II",
      "vote_average": 7.4,
      "overview": "After a family moves into the Heelshire Mansion, their young son soon makes friends with a life-like doll called Brahms.",
      "release_date": "2020-02-20"
    },
    {
      "popularity": 43.661,
      "vote_count": 17,
      "video": false,
      "poster_path": "/sm8iVzA7kRp0d4BSIsgXjsSBMKV.jpg",
      "id": 556678,
      "adult": false,
      "backdrop_path": "/l111ATIHwHQPL9dHKV5Lix85Azq.jpg",
      "original_language": "en",
      "original_title": "Emma.",
      "genre_ids": [
        35,
        18
      ],
      "title": "Emma.",
      "vote_average": 7.6,
      "overview": "In 1800s England, a well-meaning but selfish young woman meddles in the love lives of her friends.",
      "release_date": "2020-02-14"
    },
    {
      "popularity": 41.488,
      "vote_count": 258,
      "video": false,
      "poster_path": "/p9vCAVhDK375XyobVcKqzqzsUHE.jpg",
      "id": 501907,
      "adult": false,
      "backdrop_path": "/w0tJot6O0UtLVBRIPAdg3dQ2oNO.jpg",
      "original_language": "en",
      "original_title": "A Beautiful Day in the Neighborhood",
      "genre_ids": [
        18
      ],
      "title": "A Beautiful Day in the Neighborhood",
      "vote_average": 7.3,
      "overview": "An award-winning cynical journalist, Lloyd Vogel, begrudgingly accepts an assignment to write an Esquire profile piece on the beloved television icon Fred Rogers. After his encounter with Rogers, Vogel's perspective on life is transformed.",
      "release_date": "2019-11-22"
    },
    {
      "popularity": 30.711,
      "vote_count": 0,
      "video": false,
      "poster_path": "/4U7hpTK0XTQBKT5X60bKmJd05ha.jpg",
      "id": 570670,
      "adult": false,
      "backdrop_path": "/uZMZyvarQuXLRqf3xdpdMqzdtjb.jpg",
      "original_language": "en",
      "original_title": "The Invisible Man",
      "genre_ids": [
        27,
        878,
        53
      ],
      "title": "The Invisible Man",
      "vote_average": 0,
      "overview": "When Cecilia's abusive ex takes his own life and leaves her his fortune, she suspects his death was a hoax. As a series of coincidences turn lethal, Cecilia works to prove that she is being hunted by someone nobody can see.",
      "release_date": "2020-02-26"
    },
    {
      "popularity": 40.062,
      "vote_count": 68,
      "video": false,
      "poster_path": "/xssWHNrOhAeq0EUzHbHqn1SRb5s.jpg",
      "id": 548473,
      "adult": false,
      "backdrop_path": "/8keFEE7XPTLEJ4hL67LZQGPHNCo.jpg",
      "original_language": "en",
      "original_title": "Color Out of Space",
      "genre_ids": [
        27,
        878
      ],
      "title": "Color Out of Space",
      "vote_average": 6.6,
      "overview": "The Gardner family moves to a remote farmstead in rural New England to escape the hustle of the 21st century. They are busy adapting to their new life when a meteorite crashes into their front yard, melts into the earth, and infects both the land and the properties of space-time with a strange, otherworldly colour. To their horror, the family discovers this alien force is gradually mutating every life form that it touches—including them.",
      "release_date": "2019-09-24"
    },
    {
      "popularity": 28.472,
      "vote_count": 138,
      "video": false,
      "poster_path": "/jNvlqNDnXH8aqBeiBxNNP0wWWO3.jpg",
      "id": 522369,
      "adult": false,
      "backdrop_path": "/yjCW0qLgmyBUuv3KwRkuwy6yfmv.jpg",
      "original_language": "en",
      "original_title": "Sorry We Missed You",
      "genre_ids": [
        18
      ],
      "title": "Sorry We Missed You",
      "vote_average": 7.6,
      "overview": "From the Director of I Daniel Blake (Ken Loach) comes another hard hitting dose of reality. Ricky and his family have been fighting an uphill struggle against debt since the 2008 financial crash. An opportunity to wrestle back some independence appears with a shiny new van and the chance to run a franchise as a self-employed delivery driver. It's hard work, and his wife's job as a carer is no easier. The family unit is strong but when both are pulled in different directions everything comes to breaking point.",
      "release_date": "2019-10-04"
    },
    {
      "popularity": 33.598,
      "vote_count": 11,
      "video": false,
      "poster_path": "/cdqZqIcWt0Ne2Io2OA9iWqqMuCA.jpg",
      "id": 589049,
      "adult": false,
      "backdrop_path": "/kU5qE5b6ksL3osaqKCUlMS08Ays.jpg",
      "original_language": "en",
      "original_title": "The Photograph",
      "genre_ids": [
        18,
        10749
      ],
      "title": "The Photograph",
      "vote_average": 6.9,
      "overview": "When famed photographer Christina Eames dies unexpectedly, she leaves her estranged daughter, Mae, hurt, angry and full of questions. When Mae finds a photograph tucked away in a safe-deposit box, she soon finds herself delving into her mother's early life -- an investigation that leads to an unexpected romance with a rising journalist.",
      "release_date": "2020-02-14"
    },
    {
      "popularity": 21.652,
      "vote_count": 0,
      "video": false,
      "poster_path": "/3VqDLgKLfNYSQYEGC5sjGhcPhn7.jpg",
      "id": 508439,
      "adult": false,
      "backdrop_path": "/bcT8CaBIj086WVD7K529h78eujb.jpg",
      "original_language": "en",
      "original_title": "Onward",
      "genre_ids": [
        12,
        16,
        35,
        14,
        10751
      ],
      "title": "Onward",
      "vote_average": 0,
      "overview": "In a suburban fantasy world, two teenage elf brothers embark on an extraordinary quest to discover if there is still a little magic left out there.",
      "release_date": "2020-03-04"
    },
    {
      "popularity": 22.543,
      "vote_count": 301,
      "video": false,
      "poster_path": "/iqJhHjD6k6T07waELjMKDpQJUP.jpg",
      "id": 491283,
      "adult": false,
      "backdrop_path": "/hJXxDoCwchAuJ4K3gwtno2chgr8.jpg",
      "original_language": "en",
      "original_title": "Judy",
      "genre_ids": [
        18
      ],
      "title": "Judy",
      "vote_average": 6.9,
      "overview": "Winter 1968 and showbiz legend Judy Garland arrives in Swinging London to perform a five-week sold-out run at The Talk of the Town. It is 30 years since she shot to global stardom in The Wizard of Oz, but if her voice has weakened, its dramatic intensity has only grown. As she prepares for the show, battles with management, charms musicians and reminisces with friends and adoring fans, her wit and warmth shine through. Even her dreams of love seem undimmed as she embarks on a whirlwind romance with Mickey Deans, her soon-to-be fifth husband.",
      "release_date": "2019-09-27"
    },
    {
      "popularity": 20.53,
      "vote_count": 162,
      "video": false,
      "poster_path": "/zQGzAoYF6lXDN3L9hxBecQRZIwB.jpg",
      "id": 522212,
      "adult": false,
      "backdrop_path": "/zNqsGEWHlXwFw8wod0HDkgrvsl8.jpg",
      "original_language": "en",
      "original_title": "Just Mercy",
      "genre_ids": [
        18,
        36
      ],
      "title": "Just Mercy",
      "vote_average": 8.2,
      "overview": "The powerful true story of Harvard-educated lawyer Bryan Stevenson, who goes to Alabama to defend the disenfranchised and wrongly condemned — including Walter McMillian, a man sentenced to death despite evidence proving his innocence. Bryan fights tirelessly for Walter with the system stacked against them.",
      "release_date": "2019-12-25"
    },
    {
      "popularity": 16.894,
      "vote_count": 785,
      "video": false,
      "poster_path": "/8bxIzp9w9l9ZzGVwNaIKOaem05A.jpg",
      "id": 484468,
      "adult": false,
      "backdrop_path": "/vadfaj3hqzgDFTSdWUMp5onELPK.jpg",
      "original_language": "fr",
      "original_title": "Le chant du loup",
      "genre_ids": [
        28,
        53
      ],
      "title": "The Wolf's Call",
      "vote_average": 7.7,
      "overview": "With nuclear war looming, a military expert in underwater acoustics strives to prove things aren't as they seem—or sound—using only his ears.",
      "release_date": "2019-02-20"
    },
    {
      "popularity": 19.198,
      "vote_count": 54,
      "video": false,
      "poster_path": "/mBBBXseq4k4dI63k06XIrsc02j8.jpg",
      "id": 542224,
      "adult": false,
      "backdrop_path": "/en1XAePgWqNSXb82luUMmo5u3cF.jpg",
      "original_language": "en",
      "original_title": "Gretel & Hansel",
      "genre_ids": [
        14,
        27,
        53
      ],
      "title": "Gretel & Hansel",
      "vote_average": 5.4,
      "overview": "A long time ago in a distant fairy tale countryside, a young girl leads her little brother into a dark wood in desperate search of food and work, only to stumble upon a nexus of terrifying evil.",
      "release_date": "2020-01-30"
    },
    {
      "popularity": 17.901,
      "vote_count": 0,
      "video": false,
      "poster_path": "/xQdN7MpyqDHLa1Qf6CC7aZnMfBR.jpg",
      "id": 654879,
      "adult": false,
      "backdrop_path": null,
      "original_language": "en",
      "original_title": "Deported",
      "genre_ids": [],
      "title": "Deported",
      "vote_average": 0,
      "overview": "When his new girlfriend gets deported on a technicality, Ross hires a fake husband to get her back into the country because he's not ready to commit to marriage.",
      "release_date": "2020-03-01"
    }
  ],
  "page": 1,
  "total_results": 237,
  "dates": {
    "maximum": "2020-03-15",
    "minimum": "2020-02-29"
  },
  "total_pages": 12
}
